{
    "fluentMethods": true,
    "relationships": [
        {
            "relationshipName": "userHealth",
            "otherEntityName": "userHealth",
            "relationshipType": "one-to-one",
            "otherEntityField": "login",
            "ownerSide": true,
            "otherEntityRelationshipName": "points"
        }
    ],
    "fields": [
        {
            "fieldName": "date",
            "fieldType": "LocalDate",
            "fieldValidateRules": [
                "required"
            ]
        },
        {
            "fieldName": "exercise",
            "fieldType": "Integer"
        },
        {
            "fieldName": "meals",
            "fieldType": "Integer"
        },
        {
            "fieldName": "alcohol",
            "fieldType": "Integer"
        },
        {
            "fieldName": "notes",
            "fieldType": "Integer"
        }
    ],
    "changelogDate": "20170612121549",
    "dto": "no",
    "service": "no",
    "entityTableName": "points",
    "pagination": "infinite-scroll"
}
